Odpowiedzi
…
dttm - data lotu

Za pomocą pojedynczego pipelina na każdy warunek, znajdź wszystkie loty, które:

Miały opóźnienie o co najmniej 2 godziny.

Code

df1 <- fl %>%
  select_all() %>%
  filter(dep_delay > 120) %>%
  arrange(desc(dep_delay)) %>% relocate(dep_delay)
df1

# A tibble: 9,723 × 19
   dep_delay  year month   day dep_time sched_dep_time arr_time sched_arr_time
       <dbl> <int> <int> <int>    <int>          <int>    <int>          <int>
 1      1301  2013     1     9      641            900     1242           1530
 2      1137  2013     6    15     1432           1935     1607           2120
 3      1126  2013     1    10     1121           1635     1239           1810
 4      1014  2013     9    20     1139           1845     1457           2210
 5      1005  2013     7    22      845           1600     1044           1815
 6       960  2013     4    10     1100           1900     1342           2211
 7       911  2013     3    17     2321            810      135           1020
 8       899  2013     6    27      959           1900     1236           2226
 9       898  2013     7    22     2257            759      121           1026
10       896  2013    12     5      756           1700     1058           2020
# ℹ 9,713 more rows
# ℹ 11 more variables: arr_delay <dbl>, carrier <chr>, flight <int>,
#   tailnum <chr>, origin <chr>, dest <chr>, air_time <dbl>, distance <dbl>,
#   hour <dbl>, minute <dbl>, time_hour <dttm>

Leciały do Huston (IAH lub HOU)

Code

df2 <- fl %>%
  select_all() %>%
  filter(dest == "IAH" | dest == "HOU") %>%
  relocate(dest)
df2

# A tibble: 9,313 × 19
   dest   year month   day dep_time sched_dep_time dep_delay arr_time
   <chr> <int> <int> <int>    <int>          <int>     <dbl>    <int>
 1 IAH    2013     1     1      517            515         2      830
 2 IAH    2013     1     1      533            529         4      850
 3 IAH    2013     1     1      623            627        -4      933
 4 IAH    2013     1     1      728            732        -4     1041
 5 IAH    2013     1     1      739            739         0     1104
 6 IAH    2013     1     1      908            908         0     1228
 7 IAH    2013     1     1     1028           1026         2     1350
 8 IAH    2013     1     1     1044           1045        -1     1352
 9 IAH    2013     1     1     1114            900       134     1447
10 IAH    2013     1     1     1205           1200         5     1503
# ℹ 9,303 more rows
# ℹ 11 more variables: sched_arr_time <int>, arr_delay <dbl>, carrier <chr>,
#   flight <int>, tailnum <chr>, origin <chr>, air_time <dbl>, distance <dbl>,
#   hour <dbl>, minute <dbl>, time_hour <dttm>

Były z lini lotniczych United, American, lub Delta

Code

df3 <- fl %>%
  select_all() %>%
  filter(carrier %in% c('AA', 'UA', 'DL')) %>%
  arrange(carrier) %>%
  relocate(carrier)
df3

# A tibble: 139,504 × 19
   carrier  year month   day dep_time sched_dep_time dep_delay arr_time
   <chr>   <int> <int> <int>    <int>          <int>     <dbl>    <int>
 1 AA       2013     1     1      542            540         2      923
 2 AA       2013     1     1      558            600        -2      753
 3 AA       2013     1     1      559            600        -1      941
 4 AA       2013     1     1      606            610        -4      858
 5 AA       2013     1     1      623            610        13      920
 6 AA       2013     1     1      628            630        -2     1137
 7 AA       2013     1     1      629            630        -1      824
 8 AA       2013     1     1      635            635         0     1028
 9 AA       2013     1     1      656            700        -4      854
10 AA       2013     1     1      656            659        -3      949
# ℹ 139,494 more rows
# ℹ 11 more variables: sched_arr_time <int>, arr_delay <dbl>, flight <int>,
#   tailnum <chr>, origin <chr>, dest <chr>, air_time <dbl>, distance <dbl>,
#   hour <dbl>, minute <dbl>, time_hour <dttm>

Wylatywały w lecie (Lipiec, Sierpień, Wrzesień)

Code

df4 <- fl %>%
  select_all() %>%
  filter(month %in% c(7, 8 ,9)) %>%
  arrange(month) %>%
  relocate(month)
df4

# A tibble: 86,326 × 19
   month  year   day dep_time sched_dep_time dep_delay arr_time sched_arr_time
   <int> <int> <int>    <int>          <int>     <dbl>    <int>          <int>
 1     7  2013     1        1           2029       212      236           2359
 2     7  2013     1        2           2359         3      344            344
 3     7  2013     1       29           2245       104      151              1
 4     7  2013     1       43           2130       193      322             14
 5     7  2013     1       44           2150       174      300            100
 6     7  2013     1       46           2051       235      304           2358
 7     7  2013     1       48           2001       287      308           2305
 8     7  2013     1       58           2155       183      335             43
 9     7  2013     1      100           2146       194      327             30
10     7  2013     1      100           2245       135      337            135
# ℹ 86,316 more rows
# ℹ 11 more variables: arr_delay <dbl>, carrier <chr>, flight <int>,
#   tailnum <chr>, origin <chr>, dest <chr>, air_time <dbl>, distance <dbl>,
#   hour <dbl>, minute <dbl>, time_hour <dttm>

Miały opóźnienie o co najmniej dwie godziny ale nie miały opóźnienia odlotu.

Code

df5 <- fl %>%
  select_all() %>%
  filter(arr_delay > 120 & dep_delay <= 0) %>%
  arrange(arr_delay) %>%
  relocate(dep_delay, arr_delay)
df5

# A tibble: 29 × 19
   dep_delay arr_delay  year month   day dep_time sched_dep_time arr_time
       <dbl>     <dbl> <int> <int> <int>    <int>          <int>    <int>
 1       -11       121  2013     6     5     1604           1615     2041
 2        -5       121  2013     7    22     1555           1600     2139
 3        -2       121  2013     8    13      657            659     1015
 4        -3       122  2013    10    16      657            700     1258
 5        -8       123  2013     6    27     2052           2100       13
 6        -1       124  2013     1    27     1419           1420     1754
 7        -2       124  2013    10     7     1357           1359     1858
 8        -5       124  2013     4    17     1635           1640     2049
 9        -3       124  2013     8     8     1457           1500     1828
10        -3       124  2013     8    28     1157           1200     1520
# ℹ 19 more rows
# ℹ 11 more variables: sched_arr_time <int>, carrier <chr>, flight <int>,
#   tailnum <chr>, origin <chr>, dest <chr>, air_time <dbl>, distance <dbl>,
#   hour <dbl>, minute <dbl>, time_hour <dttm>

Miały co najmniej godzinę opóźnienia ale odrobiły ponad 30 minut w trakcie lotu.

Code

df6 <- fl %>%
  select_all() %>%
  filter(arr_delay - dep_delay < 30 & dep_delay >= 60) %>%
  arrange(arr_delay) %>%
  relocate(dep_delay, arr_delay)
df6 

# A tibble: 24,774 × 19
   dep_delay arr_delay  year month   day dep_time sched_dep_time arr_time
       <dbl>     <dbl> <int> <int> <int>    <int>          <int>    <int>
 1        60       -27  2013     2    26     1000            900     1513
 2        61        -2  2013     4     5      932            831     1149
 3        63        -1  2013     7    11     2018           1915     2210
 4        61         0  2013     5    13     1756           1655     2020
 5        65         1  2013     1     3     1950           1845     2228
 6        62         2  2013    12    27     1050            948     1311
 7        60         4  2013    12    22     1030            930     1534
 8        66         5  2013    12    27     1936           1830     2204
 9        64         5  2013     7    14     2111           2007     2304
10        69         6  2013     4    27     2141           2032        9
# ℹ 24,764 more rows
# ℹ 11 more variables: sched_arr_time <int>, carrier <chr>, flight <int>,
#   tailnum <chr>, origin <chr>, dest <chr>, air_time <dbl>, distance <dbl>,
#   hour <dbl>, minute <dbl>, time_hour <dttm>

Posortuj loty by znaleźć loty z najdłuższym opóźnieniem odlotu. Znajdź loty, który odlatywały najwcześniej rano.

Code

df7 <- fl %>%
  select_all() %>%
  arrange(desc(dep_delay)) %>%
  relocate(dep_delay)
df7 

# A tibble: 336,776 × 19
   dep_delay  year month   day dep_time sched_dep_time arr_time sched_arr_time
       <dbl> <int> <int> <int>    <int>          <int>    <int>          <int>
 1      1301  2013     1     9      641            900     1242           1530
 2      1137  2013     6    15     1432           1935     1607           2120
 3      1126  2013     1    10     1121           1635     1239           1810
 4      1014  2013     9    20     1139           1845     1457           2210
 5      1005  2013     7    22      845           1600     1044           1815
 6       960  2013     4    10     1100           1900     1342           2211
 7       911  2013     3    17     2321            810      135           1020
 8       899  2013     6    27      959           1900     1236           2226
 9       898  2013     7    22     2257            759      121           1026
10       896  2013    12     5      756           1700     1058           2020
# ℹ 336,766 more rows
# ℹ 11 more variables: arr_delay <dbl>, carrier <chr>, flight <int>,
#   tailnum <chr>, origin <chr>, dest <chr>, air_time <dbl>, distance <dbl>,
#   hour <dbl>, minute <dbl>, time_hour <dttm>

Code

df8 <- fl %>%
  select_all() %>%
  arrange(hour) %>%
  relocate(hour)
df8 

# A tibble: 336,776 × 19
    hour  year month   day dep_time sched_dep_time dep_delay arr_time
   <dbl> <int> <int> <int>    <int>          <int>     <dbl>    <int>
 1     1  2013     7    27       NA            106        NA       NA
 2     5  2013     1     1      517            515         2      830
 3     5  2013     1     1      533            529         4      850
 4     5  2013     1     1      542            540         2      923
 5     5  2013     1     1      544            545        -1     1004
 6     5  2013     1     1      554            558        -4      740
 7     5  2013     1     1      559            559         0      702
 8     5  2013     1     2      458            500        -2      703
 9     5  2013     1     2      512            515        -3      809
10     5  2013     1     2      535            540        -5      831
# ℹ 336,766 more rows
# ℹ 11 more variables: sched_arr_time <int>, arr_delay <dbl>, carrier <chr>,
#   flight <int>, tailnum <chr>, origin <chr>, dest <chr>, air_time <dbl>,
#   distance <dbl>, minute <dbl>, time_hour <dttm>

Posortuj loty by znaleźć najszybsze połączenia. Wskazówka: Wykorzystać obliczenia matematyczne wewnątrz funkcji.

Code

df9 <- fl %>%
  select_all() %>%
  mutate(velocity = (distance * 1.6) / (air_time/60)) %>%
  arrange(desc(velocity)) %>%
  relocate(velocity, distance, air_time)
df9 

# A tibble: 336,776 × 20
   velocity distance air_time  year month   day dep_time sched_dep_time
      <dbl>    <dbl>    <dbl> <int> <int> <int>    <int>          <int>
 1    1125.      762       65  2013     5    25     1709           1700
 2    1041.     1008       93  2013     7     2     1558           1513
 3    1037.      594       55  2013     5    13     2040           2025
 4    1026.      748       70  2013     3    23     1914           1910
 5     946.     1035      105  2013     1    12     1559           1600
 6     902.     1598      170  2013    11    17      650            655
 7     892.     1598      172  2013     2    21     2355           2358
 8     890.     1623      175  2013    11    17      759            800
 9     887.     1598      173  2013    11    16     2003           1925
10     887.     1598      173  2013    11    16     2349           2359
# ℹ 336,766 more rows
# ℹ 12 more variables: dep_delay <dbl>, arr_time <int>, sched_arr_time <int>,
#   arr_delay <dbl>, carrier <chr>, flight <int>, tailnum <chr>, origin <chr>,
#   dest <chr>, hour <dbl>, minute <dbl>, time_hour <dttm>
…
